{
	"title": "Publishing Article Schema",
	"id":"https://publishing.cern.ch/schemas/records/record-articles.json",
	"$schema": "http://json-schema.org/draft-04/schema#",
	"type": "object",
	"properties": {
		"art_id": {
			"description": "Article record identifier (string).",
			"type": "string"
		},
		"authors": {
			"description": "This is the list of authors associated with the article ",
			"items": {
				"minLength": 1,
				"type": "object"
			},
			"minItems": 1,
			"title": "List of authors",
			"type": "array",
			"uniqueItems": true
		},
    	"languages": {
			"title": "Languages",
			"description": "A list of languages.",
			"type": "array",
			"items": {
				"type": "string"
			},
			"uniqueItems": true
		},
		"related_urls": {
			"description": "Related research outputs.",
			"type": "array",
			"items": {
			  "type": "object",
			  "properties": {
				"related_url": {
				  "description": "Related Url",
				  "type": "string",
				  "format": "uri"
				},
				"label":{
				  "description": "Label for the url",
				  "type": "string"
				}
			  }	  
			}
		},
    	"sponsor":{
			"description": "sponsor",
            "type":"string"
		},
		"search_issue_id":{
			"description": "The PID issue",
			"type": "string"
		},
		"subjects": {
			"title": "Subjects",
			"description": "A list of Subjects.",
			"type": "array",
			"items": {
				"type": "string"
			},
			"uniqueItems": true
		},
		"disciplines": {
			"title": "Disciplines",
			"description": "A list of Disciplines.",
			"type": "array",
			"items": {
				"type": "string"
			},
			"uniqueItems": true
		},
		"agencies": {
			"title": "Supporting agencies",
			"description": "A list of Supporting agencies.",
			"type": "array",
			"items": {
				"type": "string"
			},
			"uniqueItems": true
		},
		"publication_date": {
			"description": "Record publication date (IS8601-formatted). EDTF support to be added for field.",
			"type": "string",
			"format": "date"
		},	  
		"doi": {
			"description": "Digital Object Identifier (DOI).",
			"type": "string"
		},
		"coverage":{
			"description": "coverage",
            "type":"string"
		},
		"rights":{
			"description": "Access Rights",
            "type":"string"
		},
		"section":{
			"description": "Section",
            "type":"string"
		},
		"source":{
			"description": "Source",
            "type":"string"
		},
		"type":{
			"description": "type",
            "type":"string"
		},
		"references":{
			"description": "Citations and References",
            "type":"string"
		}
  }
}