{
    "template": "__SEARCH_INDEX_PREFIX__events-stats-file-download-*",
    "settings": {
      "index": {
        "refresh_interval": "5s"
      }
    },
    "mappings": {
      "dynamic_templates": [
        {
          "date_fields": {
            "match_mapping_type": "date",
            "mapping": {
              "type": "date",
              "format": "strict_date_hour_minute_second"
            }
          }
        }
      ],
      "date_detection": false,
      "dynamic": false,
      "numeric_detection": false,
      "properties": {
        "timestamp": {
          "type": "date",
          "format": "strict_date_hour_minute_second"
        },
        "bucket_id": {
          "type": "keyword"
        },
        "file_id": {
          "type": "keyword"
        },
        "file_key": {
          "type": "keyword"
        },
        "unique_id": {
          "type": "keyword"
        },
        "country": {
          "type": "keyword"
        },
        "visitor_id": {
          "type": "keyword"
        },
        "collection": {
          "type": "keyword"
        },
        "is_robot": {
          "type": "boolean"
        },
        "unique_session_id": {
          "type": "keyword"
        },
        "size": {
          "type": "double"
        },
        "pid_value": {
            "type": "keyword"
        },
        "referrer": {
            "type": "text"
        },
        "pid_type": {
            "type": "keyword"
        }
      }
    },
    "aliases": {
      "__SEARCH_INDEX_PREFIX__events-stats-file-download": {}
    }
  }